{
  "rules": {
    ".read": false,
    ".write": false,
    "tags": {
      ".write": "auth.token.admin === true",
      ".read": true
    },
    "users": {
      "$uid": {
        ".write": "$uid == auth.uid",
        ".read": "$uid == auth.uid"
      }
    },
    "dares": {
       ".read": true,
      "$uid": {
        ".read": true,
        ".write": "(newData.hasChild('userid') && !data.hasChild('userid')) || auth.token.admin === true",
        ".validate": "(newData.hasChild('userid') && newData.hasChild('accepted') && !data.hasChild('userid')) || auth.token.admin === true",
        "userid": {
          ".write": "auth.uid == newData.val() || auth.token.admin === true"
        },
        "accepted ": {
          ".write": "false == newData.val() || auth.token.admin === true"
        }
      }
    }
  }
}